{
  "accessors": [
    {
      "bufferView": 2,
      "componentType": 5126,
      "count": 4,
      "max": [
        1,
        1,
        0
      ],
      "min": [
        -1,
        -1,
        0
      ],
      "type": "VEC3"
    },
    {
      "bufferView": 2,
      "byteOffset": 48,
      "componentType": 5126,
      "count": 4,
      "max": [
        0,
        0,
        1
      ],
      "min": [
        0,
        0,
        1
      ],
      "type": "VEC3"
    },
    {
      "bufferView": 0,
      "componentType": 5125,
      "count": 6,
      "max": [
        3
      ],
      "min": [
        0
      ],
      "type": "SCALAR"
    },
    {
      "bufferView": 2,
      "byteOffset": 96,
      "componentType": 5126,
      "count": 2672,
      "max": [
        1.0553499460220337,
        0.43742001056671143,
        0.15169000625610352
      ],
      "min": [
        -1.0553499460220337,
        -0.43742001056671143,
        -0.15169000625610352
      ],
      "type": "VEC3"
    },
    {
      "bufferView": 2,
      "byteOffset": 32160,
      "componentType": 5126,
      "count": 2672,
      "max": [
        0.99997431039810181,
        0.99999970197677612,
        1
      ],
      "min": [
        -0.99997812509536743,
        -0.99999970197677612,
        -1
      ],
      "type": "VEC3"
    },
    {
      "bufferView": 3,
      "componentType": 5126,
      "count": 2672,
      "max": [
        0.99998396635055542,
        0.99999994039535522,
        1,
        1
      ],
      "min": [
        -0.99997854232788086,
        -0.99999916553497314,
        -1,
        1
      ],
      "type": "VEC4"
    },
    {
      "bufferView": 1,
      "componentType": 5126,
      "count": 2672,
      "max": [
        0.99207001924514771,
        0.99207001924514771
      ],
      "min": [
        0.0079300003126263618,
        0.0079300003126263618
      ],
      "type": "VEC2"
    },
    {
      "bufferView": 0,
      "byteOffset": 24,
      "componentType": 5125,
      "count": 6336,
      "max": [
        2671
      ],
      "min": [
        0
      ],
      "type": "SCALAR"
    },
    {
      "bufferView": 2,
      "byteOffset": 64224,
      "componentType": 5126,
      "count": 24,
      "max": [
        -0.056680001318454742,
        0.42291000485420227,
        0.064390003681182861
      ],
      "min": [
        -0.10283000022172928,
        0.31520000100135803,
        -0.064390003681182861
      ],
      "type": "VEC3"
    },
    {
      "bufferView": 2,
      "byteOffset": 64512,
      "componentType": 5126,
      "count": 24,
      "max": [
        0.99536877870559692,
        0.096130847930908203,
        0
      ],
      "min": [
        -0.99536877870559692,
        -0.096130847930908203,
        0
      ],
      "type": "VEC3"
    },
    {
      "bufferView": 3,
      "byteOffset": 42752,
      "componentType": 5126,
      "count": 24,
      "max": [
        0.096130870282649994,
        0.99536877870559692,
        0.000259342574281618,
        1
      ],
      "min": [
        -0.0961308553814888,
        -0.99536877870559692,
        -0.00056873634457588196,
        1
      ],
      "type": "VEC4"
    },
    {
      "bufferView": 0,
      "byteOffset": 25368,
      "componentType": 5125,
      "count": 72,
      "max": [
        23
      ],
      "min": [
        0
      ],
      "type": "SCALAR"
    }
  ],
  "asset": {
    "extras": {
      "author": "pinguinoconpulgares (https://sketchfab.com/pinguinoconpulgares)",
      "license": "CC-BY-4.0 (http://creativecommons.org/licenses/by/4.0/)",
      "source": "https://sketchfab.com/models/e8c8a828cddf4f87b4bcd572f809925a",
      "title": "Assault Rifle (UGEN)"
    },
    "generator": "Sketchfab-3.18.2",
    "version": "2.0"
  },
  "bufferViews": [
    {
      "buffer": 0,
      "byteLength": 25656,
      "byteOffset": 0,
      "name": "floatBufferViews",
      "target": 34963
    },
    {
      "buffer": 0,
      "byteLength": 21376,
      "byteOffset": 25656,
      "byteStride": 8,
      "name": "floatBufferViews",
      "target": 34962
    },
    {
      "buffer": 0,
      "byteLength": 64800,
      "byteOffset": 47032,
      "byteStride": 12,
      "name": "floatBufferViews",
      "target": 34962
    },
    {
      "buffer": 0,
      "byteLength": 43136,
      "byteOffset": 111832,
      "byteStride": 16,
      "name": "floatBufferViews",
      "target": 34962
    }
  ],
  "buffers": [
    {
      "byteLength": 154968,
      "uri": "scene.bin"
    }
  ],
  "images": [
    {
      "uri": "textures/RIFLE.001_baseColor.png"
    }
  ],
  "materials": [
    {
      "doubleSided": false,
      "emissiveFactor": [
        0,
        0,
        0
      ],
      "name": "RIFLE.001",
      "pbrMetallicRoughness": {
        "baseColorFactor": [
          1,
          1,
          1,
          1
        ],
        "baseColorTexture": {
          "index": 0,
          "texCoord": 0
        },
        "metallicFactor": 0,
        "roughnessFactor": 0.59999999999999998
      }
    },
    {
      "doubleSided": false,
      "emissiveFactor": [
        0.26226592334999999,
        1,
        1
      ],
      "name": "LIGHT.001",
      "pbrMetallicRoughness": {
        "baseColorFactor": [
          0.095660313999999996,
          0.834546864,
          1,
          1
        ],
        "metallicFactor": 0,
        "roughnessFactor": 0.59999999999999998
      }
    },
    {
      "alphaMode": "BLEND",
      "doubleSided": true,
      "emissiveFactor": [
        0,
        0,
        0
      ],
      "name": "Material.001",
      "pbrMetallicRoughness": {
        "baseColorFactor": [
          0.80000001190000003,
          0.80000001190000003,
          0.80000001190000003,
          0
        ],
        "metallicFactor": 0,
        "roughnessFactor": 0.59999999999999998
      }
    }
  ],
  "meshes": [
    {
      "name": "Plane.001",
      "primitives": [
        {
          "attributes": {
            "NORMAL": 1,
            "POSITION": 0
          },
          "indices": 2,
          "material": 2,
          "mode": 4
        }
      ]
    },
    {
      "name": "Cube.000",
      "primitives": [
        {
          "attributes": {
            "NORMAL": 4,
            "POSITION": 3,
            "TANGENT": 5,
            "TEXCOORD_0": 6
          },
          "indices": 7,
          "material": 0,
          "mode": 4
        }
      ]
    },
    {
      "name": "Cube.000",
      "primitives": [
        {
          "attributes": {
            "NORMAL": 9,
            "POSITION": 8,
            "TANGENT": 10
          },
          "indices": 11,
          "material": 1,
          "mode": 4
        }
      ]
    }
  ],
  "nodes": [
    {
      "children": [
        1
      ],
      "name": "RootNode (gltf orientation matrix)",
      "rotation": [
        -0.70710678118654746,
        -0,
        -0,
        0.70710678118654757
      ]
    },
    {
      "children": [
        2
      ],
      "name": "RootNode (model correction matrix)"
    },
    {
      "children": [
        3,
        5,
        7,
        9,
        11
      ],
      "name": "Root"
    },
    {
      "children": [
        4
      ],
      "matrix": [
        1,
        0,
        0,
        0,
        0,
        1,
        0,
        0,
        0,
        0,
        1,
        0,
        1.7767000000000002,
        0.038320000000000007,
        3.4904999999999999,
        1
      ],
      "name": "Hemi.007"
    },
    {
      "name": "Hemi.007"
    },
    {
      "children": [
        6
      ],
      "matrix": [
        34.95411,
        0,
        0,
        0,
        0,
        34.95411,
        0,
        0,
        0,
        0,
        34.95411,
        0,
        0.038380000000000004,
        0.64451000000000003,
        0.15621000000000004,
        1
      ],
      "name": "Plane.001"
    },
    {
      "mesh": 0,
      "name": "Plane.001"
    },
    {
      "children": [
        8
      ],
      "matrix": [
        0.81940000000000002,
        -0.22012000000000001,
        0.52927000000000002,
        0,
        0.40805000000000002,
        0.87246000000000001,
        -0.26889000000000002,
        0,
        -0.40258000000000005,
        0.43630000000000008,
        0.8047200000000001,
        0,
        -1.12419,
        0.0081200000000000005,
        3.5404200000000001,
        1
      ],
      "name": "Sun.001"
    },
    {
      "name": "Sun.001"
    },
    {
      "children": [
        10
      ],
      "matrix": [
        -1,
        0,
        -0,
        0,
        0,
        1,
        0,
        0,
        0,
        0,
        -1,
        0,
        0.89199000000000017,
        2.5162299999999997,
        2.4679800000000003,
        1
      ],
      "name": "Hemi.006"
    },
    {
      "name": "Hemi.006"
    },
    {
      "children": [
        12,
        13
      ],
      "matrix": [
        0.97563,
        0.20703000000000002,
        -0.072720000000000021,
        0,
        0.092690000000000036,
        -0.088470000000000021,
        0.99175999999999997,
        0,
        0.19889000000000004,
        -0.97432999999999992,
        -0.10550000000000001,
        0,
        0.29457000000000005,
        -2.1694200000000001,
        0.84839000000000009,
        1
      ],
      "name": "Cube.000"
    },
    {
      "mesh": 1,
      "name": "Cube.000"
    },
    {
      "mesh": 2,
      "name": "Cube.000"
    }
  ],
  "samplers": [
    {
      "magFilter": 9729,
      "minFilter": 9987,
      "wrapS": 10497,
      "wrapT": 10497
    }
  ],
  "scene": 0,
  "scenes": [
    {
      "name": "OSG_Scene",
      "nodes": [
        0
      ]
    }
  ],
  "textures": [
    {
      "sampler": 0,
      "source": 0
    }
  ]
}

